{
  "project_info": {
    "project_number": "222734373248",
    "firebase_url": "https://jamesjoyce.firebaseio.com",
    "project_id": "jamesjoyce",
    "storage_bucket": "jamesjoyce.appspot.com"
  },
  "client": [
    {
      "client_info": {
        "mobilesdk_app_id": "1:222734373248:android:7fdb19b870e3395c63f165",
        "android_client_info": {
          "package_name": "eu.contat.jamesjoice"
        }
      },
      "oauth_client": [
        {
          "client_id": "222734373248-olctlqm39ccddrpt4idpt1t5iqm71k8k.apps.googleusercontent.com",
          "client_type": 1,
          "android_info": {
            "package_name": "eu.contat.jamesjoice",
            "certificate_hash": "32b7100e4705e24a1605ca15f776f87592d0412b"
          }
        },
        {
          "client_id": "222734373248-odhjpt6t6gkf6v947p5fnsnolacssvfr.apps.googleusercontent.com",
          "client_type": 3
        }
      ],
      "api_key": [
        {
          "current_key": "AIzaSyDIYPI8SggmkdyFsbsK3zld6mJwKA67H0c"
        }
      ],
      "services": {
        "appinvite_service": {
          "other_platform_oauth_client": [
            {
              "client_id": "222734373248-odhjpt6t6gkf6v947p5fnsnolacssvfr.apps.googleusercontent.com",
              "client_type": 3
            }
          ]
        }
      }
    }
  ],
  "configuration_version": "1"
}